('d:\\lucidity\\pyLauncher\\build\\main\\out00-PKG.pkg',
 {'BINARY': 1,
  'DATA': 1,
  'EXECUTABLE': 1,
  'EXTENSION': 1,
  'PYMODULE': 1,
  'PYSOURCE': 1,
  'PYZ': 0},
 [('out00-PYZ.pyz', 'd:\\lucidity\\pyLauncher\\build\\main\\out00-PYZ.pyz', 'PYZ'), ('struct', 'c:\\python33\\lib\\struct.pyo', 'PYMODULE'), ('pyimod01_os_path', 'c:\\python33\\lib\\site-packages\\PyInstaller\\loader\\pyimod01_os_path.pyc', 'PYMODULE'), ('pyimod02_archive', 'c:\\python33\\lib\\site-packages\\PyInstaller\\loader\\pyimod02_archive.pyc', 'PYMODULE'), ('pyimod03_importers', 'c:\\python33\\lib\\site-packages\\PyInstaller\\loader\\pyimod03_importers.pyc', 'PYMODULE'), ('pyiboot01_bootstrap', 'c:\\python33\\lib\\site-packages\\PyInstaller\\loader\\pyiboot01_bootstrap.py', 'PYSOURCE'), ('main', 'd:\\lucidity\\pyLauncher\\main.py', 'PYSOURCE'), ('python33.dll', 'C:\\Windows\\system32\\python33.dll', 'BINARY'), ('msvcr100.dll', 'C:\\Windows\\system32\\msvcr100.dll', 'BINARY'), ('_ssl', 'c:\\python33\\DLLs\\_ssl.pyd', 'EXTENSION'), ('unicodedata', 'c:\\python33\\DLLs\\unicodedata.pyd', 'EXTENSION'), ('win32api', 'c:\\python33\\lib\\site-packages\\win32\\win32api.pyd', 'EXTENSION'), ('pyexpat', 'c:\\python33\\DLLs\\pyexpat.pyd', 'EXTENSION'), ('_bz2', 'c:\\python33\\DLLs\\_bz2.pyd', 'EXTENSION'), ('_lzma', 'c:\\python33\\DLLs\\_lzma.pyd', 'EXTENSION'), ('_hashlib', 'c:\\python33\\DLLs\\_hashlib.pyd', 'EXTENSION'), ('_socket', 'c:\\python33\\DLLs\\_socket.pyd', 'EXTENSION'), ('select', 'c:\\python33\\DLLs\\select.pyd', 'EXTENSION'), ('sfml.audio', 'c:\\python33\\lib\\site-packages\\sfml\\audio.pyd', 'EXTENSION'), ('sfml.network', 'c:\\python33\\lib\\site-packages\\sfml\\network.pyd', 'EXTENSION'), ('sfml.graphics', 'c:\\python33\\lib\\site-packages\\sfml\\graphics.pyd', 'EXTENSION'), ('sfml.window', 'c:\\python33\\lib\\site-packages\\sfml\\window.pyd', 'EXTENSION'), ('sfml.system', 'c:\\python33\\lib\\site-packages\\sfml\\system.pyd', 'EXTENSION'), ('_ctypes', 'c:\\python33\\DLLs\\_ctypes.pyd', 'EXTENSION'), ('_multiprocessing', 'c:\\python33\\DLLs\\_multiprocessing.pyd', 'EXTENSION'), ('pywintypes33.dll', 'c:\\python33\\lib\\site-packages\\pypiwin32_system32\\pywintypes33.dll', 'BINARY'), ('sfml-audio-2.dll', 'c:\\python33\\lib\\site-packages\\sfml\\sfml-audio-2.dll', 'BINARY'), ('sfml-system-2.dll', 'c:\\python33\\lib\\site-packages\\sfml\\sfml-system-2.dll', 'BINARY'), ('msvcp100.dll', 'C:\\Windows\\system32\\msvcp100.dll', 'BINARY'), ('sfml-network-2.dll', 'c:\\python33\\lib\\site-packages\\sfml\\sfml-network-2.dll', 'BINARY'), ('sfml-graphics-2.dll', 'c:\\python33\\lib\\site-packages\\sfml\\sfml-graphics-2.dll', 'BINARY'), ('sfml-window-2.dll', 'c:\\python33\\lib\\site-packages\\sfml\\sfml-window-2.dll', 'BINARY'), ('openal32.dll', 'c:\\python33\\lib\\site-packages\\sfml\\OpenAL32.dll', 'BINARY'), ('libsndfile-1.dll', 'c:\\python33\\lib\\site-packages\\sfml\\libsndfile-1.dll', 'BINARY'), ('base_library.zip', 'd:\\lucidity\\pyLauncher\\build\\main\\base_library.zip', 'DATA'), ('include\\pyconfig.h', 'c:\\python33\\Include\\pyconfig.h', 'DATA'), ('main.exe.manifest', 'd:\\lucidity\\pyLauncher\\build\\main\\main.exe.manifest', 'BINARY'), ('pyi-windows-manifest-filename main.exe.manifest', '', 'OPTION')],
 False,
 None,
 False)
