(['d:\\lucidity\\pyLauncher\\main.py'],
 ['d:\\lucidity\\pyLauncher', 'd:\\lucidity\\pyLauncher'],
 ['codecs'],
 None,
 [],
 [],
 None,
 None,
 [('main', 'd:\\lucidity\\pyLauncher\\main.py', 'PYSOURCE')],
 [('ntpath', 'c:\\python33\\lib\\ntpath.py', 'PYMODULE'), ('_strptime', 'c:\\python33\\lib\\_strptime.py', 'PYMODULE'), ('datetime', 'c:\\python33\\lib\\datetime.py', 'PYMODULE'), ('bisect', 'c:\\python33\\lib\\bisect.py', 'PYMODULE'), ('stringprep', 'c:\\python33\\lib\\stringprep.py', 'PYMODULE'), ('_compat_pickle', 'c:\\python33\\lib\\_compat_pickle.py', 'PYMODULE'), ('pickle', 'c:\\python33\\lib\\pickle.py', 'PYMODULE'), ('__future__', 'c:\\python33\\lib\\__future__.py', 'PYMODULE'), ('difflib', 'c:\\python33\\lib\\difflib.py', 'PYMODULE'), ('inspect', 'c:\\python33\\lib\\inspect.py', 'PYMODULE'), ('cmd', 'c:\\python33\\lib\\cmd.py', 'PYMODULE'), ('bdb', 'c:\\python33\\lib\\bdb.py', 'PYMODULE'), ('opcode', 'c:\\python33\\lib\\opcode.py', 'PYMODULE'), ('dis', 'c:\\python33\\lib\\dis.py', 'PYMODULE'), ('codeop', 'c:\\python33\\lib\\codeop.py', 'PYMODULE'), ('code', 'c:\\python33\\lib\\code.py', 'PYMODULE'), ('glob', 'c:\\python33\\lib\\glob.py', 'PYMODULE'), ('shlex', 'c:\\python33\\lib\\shlex.py', 'PYMODULE'), ('imp', 'c:\\python33\\lib\\imp.py', 'PYMODULE'), ('importlib.machinery', 'c:\\python33\\lib\\importlib\\machinery.py', 'PYMODULE'), ('importlib._bootstrap', 'c:\\python33\\lib\\importlib\\_bootstrap.py', 'PYMODULE'), ('importlib', 'c:\\python33\\lib\\importlib\\__init__.py', 'PYMODULE'), ('pkgutil', 'c:\\python33\\lib\\pkgutil.py', 'PYMODULE'), ('win32con', 'c:\\python33\\lib\\site-packages\\win32\\lib\\win32con.py', 'PYMODULE'), ('xml', 'c:\\python33\\lib\\xml\\__init__.py', 'PYMODULE'), ('xml.sax.expatreader', 'c:\\python33\\lib\\xml\\sax\\expatreader.py', 'PYMODULE'), ('xml.sax.saxutils', 'c:\\python33\\lib\\xml\\sax\\saxutils.py', 'PYMODULE'), ('xml.sax', 'c:\\python33\\lib\\xml\\sax\\__init__.py', 'PYMODULE'), ('xml.sax.handler', 'c:\\python33\\lib\\xml\\sax\\handler.py', 'PYMODULE'), ('xml.sax._exceptions', 'c:\\python33\\lib\\xml\\sax\\_exceptions.py', 'PYMODULE'), ('xml.sax.xmlreader', 'c:\\python33\\lib\\xml\\sax\\xmlreader.py', 'PYMODULE'), ('xml.parsers', 'c:\\python33\\lib\\xml\\parsers\\__init__.py', 'PYMODULE'), ('xml.parsers.expat', 'c:\\python33\\lib\\xml\\parsers\\expat.py', 'PYMODULE'), ('plistlib', 'c:\\python33\\lib\\plistlib.py', 'PYMODULE'), ('platform', 'c:\\python33\\lib\\platform.py', 'PYMODULE'), ('nturl2path', 'c:\\python33\\lib\\nturl2path.py', 'PYMODULE'), ('tty', 'c:\\python33\\lib\\tty.py', 'PYMODULE'), ('pydoc_data', 'c:\\python33\\lib\\pydoc_data\\__init__.py', 'PYMODULE'), ('pydoc_data.topics', 'c:\\python33\\lib\\pydoc_data\\topics.py', 'PYMODULE'), ('formatter', 'c:\\python33\\lib\\formatter.py', 'PYMODULE'), ('html', 'c:\\python33\\lib\\html\\__init__.py', 'PYMODULE'), ('ssl', 'c:\\python33\\lib\\ssl.py', 'PYMODULE'), ('http.client', 'c:\\python33\\lib\\http\\client.py', 'PYMODULE'), ('mimetypes', 'c:\\python33\\lib\\mimetypes.py', 'PYMODULE'), ('gzip', 'c:\\python33\\lib\\gzip.py', 'PYMODULE'), ('tarfile', 'c:\\python33\\lib\\tarfile.py', 'PYMODULE'), ('bz2', 'c:\\python33\\lib\\bz2.py', 'PYMODULE'), ('distutils.errors', 'c:\\python33\\lib\\distutils\\errors.py', 'PYMODULE'), ('distutils', 'c:\\python33\\lib\\distutils\\__init__.py', 'PYMODULE'), ('distutils.log', 'c:\\python33\\lib\\distutils\\log.py', 'PYMODULE'), ('_osx_support', 'c:\\python33\\lib\\_osx_support.py', 'PYMODULE'), ('distutils.text_file', 'c:\\python33\\lib\\distutils\\text_file.py', 'PYMODULE'), ('distutils.sysconfig', 'c:\\python33\\lib\\distutils\\sysconfig.py', 'PYMODULE'), ('distutils.spawn', 'c:\\python33\\lib\\distutils\\spawn.py', 'PYMODULE'), ('lzma', 'c:\\python33\\lib\\lzma.py', 'PYMODULE'), ('py_compile', 'c:\\python33\\lib\\py_compile.py', 'PYMODULE'), ('dummy_threading', 'c:\\python33\\lib\\dummy_threading.py', 'PYMODULE'), ('socketserver', 'c:\\python33\\lib\\socketserver.py', 'PYMODULE'), ('http', 'c:\\python33\\lib\\http\\__init__.py', 'PYMODULE'), ('http.server', 'c:\\python33\\lib\\http\\server.py', 'PYMODULE'), ('uu', 'c:\\python33\\lib\\uu.py', 'PYMODULE'), ('base64', 'c:\\python33\\lib\\base64.py', 'PYMODULE'), ('email.feedparser', 'c:\\python33\\lib\\email\\feedparser.py', 'PYMODULE'), ('email.parser', 'c:\\python33\\lib\\email\\parser.py', 'PYMODULE'), ('email', 'c:\\python33\\lib\\email\\__init__.py', 'PYMODULE'), ('urllib', 'c:\\python33\\lib\\urllib\\__init__.py', 'PYMODULE'), ('urllib.parse', 'c:\\python33\\lib\\urllib\\parse.py', 'PYMODULE'), ('calendar', 'c:\\python33\\lib\\calendar.py', 'PYMODULE'), ('email._parseaddr', 'c:\\python33\\lib\\email\\_parseaddr.py', 'PYMODULE'), ('email.utils', 'c:\\python33\\lib\\email\\utils.py', 'PYMODULE'), ('email.errors', 'c:\\python33\\lib\\email\\errors.py', 'PYMODULE'), ('email._policybase', 'c:\\python33\\lib\\email\\_policybase.py', 'PYMODULE'), ('quopri', 'c:\\python33\\lib\\quopri.py', 'PYMODULE'), ('email.encoders', 'c:\\python33\\lib\\email\\encoders.py', 'PYMODULE'), ('email.charset', 'c:\\python33\\lib\\email\\charset.py', 'PYMODULE'), ('email._encoded_words', 'c:\\python33\\lib\\email\\_encoded_words.py', 'PYMODULE'), ('logging', 'c:\\python33\\lib\\logging\\__init__.py', 'PYMODULE'), ('hashlib', 'c:\\python33\\lib\\hashlib.py', 'PYMODULE'), ('random', 'c:\\python33\\lib\\random.py', 'PYMODULE'), ('string', 'c:\\python33\\lib\\string.py', 'PYMODULE'), ('email.quoprimime', 'c:\\python33\\lib\\email\\quoprimime.py', 'PYMODULE'), ('email.base64mime', 'c:\\python33\\lib\\email\\base64mime.py', 'PYMODULE'), ('email.header', 'c:\\python33\\lib\\email\\header.py', 'PYMODULE'), ('email.generator', 'c:\\python33\\lib\\email\\generator.py', 'PYMODULE'), ('email.iterators', 'c:\\python33\\lib\\email\\iterators.py', 'PYMODULE'), ('email.message', 'c:\\python33\\lib\\email\\message.py', 'PYMODULE'), ('socket', 'c:\\python33\\lib\\socket.py', 'PYMODULE'), ('webbrowser', 'c:\\python33\\lib\\webbrowser.py', 'PYMODULE'), ('pydoc', 'c:\\python33\\lib\\pydoc.py', 'PYMODULE'), ('getopt', 'c:\\python33\\lib\\getopt.py', 'PYMODULE'), ('pdb', 'c:\\python33\\lib\\pdb.py', 'PYMODULE'), ('unittest.util', 'c:\\python33\\lib\\unittest\\util.py', 'PYMODULE'), ('unittest.result', 'c:\\python33\\lib\\unittest\\result.py', 'PYMODULE'), ('pprint', 'c:\\python33\\lib\\pprint.py', 'PYMODULE'), ('unittest.case', 'c:\\python33\\lib\\unittest\\case.py', 'PYMODULE'), ('unittest.suite', 'c:\\python33\\lib\\unittest\\suite.py', 'PYMODULE'), ('fnmatch', 'c:\\python33\\lib\\fnmatch.py', 'PYMODULE'), ('unittest.loader', 'c:\\python33\\lib\\unittest\\loader.py', 'PYMODULE'), ('unittest.runner', 'c:\\python33\\lib\\unittest\\runner.py', 'PYMODULE'), ('optparse', 'c:\\python33\\lib\\optparse.py', 'PYMODULE'), ('unittest.main', 'c:\\python33\\lib\\unittest\\main.py', 'PYMODULE'), ('unittest.signals', 'c:\\python33\\lib\\unittest\\signals.py', 'PYMODULE'), ('unittest', 'c:\\python33\\lib\\unittest\\__init__.py', 'PYMODULE'), ('doctest', 'c:\\python33\\lib\\doctest.py', 'PYMODULE'), ('_dummy_thread', 'c:\\python33\\lib\\_dummy_thread.py', 'PYMODULE'), ('stat', 'c:\\python33\\lib\\stat.py', 'PYMODULE'), ('posixpath', 'c:\\python33\\lib\\posixpath.py', 'PYMODULE'), ('genericpath', 'c:\\python33\\lib\\genericpath.py', 'PYMODULE'), ('os2emxpath', 'c:\\python33\\lib\\os2emxpath.py', 'PYMODULE'), ('warnings', 'c:\\python33\\lib\\warnings.py', 'PYMODULE'), ('token', 'c:\\python33\\lib\\token.py', 'PYMODULE'), ('types', 'c:\\python33\\lib\\types.py', 'PYMODULE'), ('copy', 'c:\\python33\\lib\\copy.py', 'PYMODULE'), ('textwrap', 'c:\\python33\\lib\\textwrap.py', 'PYMODULE'), ('struct', 'c:\\python33\\lib\\struct.py', 'PYMODULE'), ('gettext', 'c:\\python33\\lib\\gettext.py', 'PYMODULE'), ('argparse', 'c:\\python33\\lib\\argparse.py', 'PYMODULE'), ('tokenize', 'c:\\python33\\lib\\tokenize.py', 'PYMODULE'), ('linecache', 'c:\\python33\\lib\\linecache.py', 'PYMODULE'), ('traceback', 'c:\\python33\\lib\\traceback.py', 'PYMODULE'), ('contextlib', 'c:\\python33\\lib\\contextlib.py', 'PYMODULE'), ('_threading_local', 'c:\\python33\\lib\\_threading_local.py', 'PYMODULE'), ('threading', 'c:\\python33\\lib\\threading.py', 'PYMODULE'), ('subprocess', 'c:\\python33\\lib\\subprocess.py', 'PYMODULE'), ('sfml', 'c:\\python33\\lib\\site-packages\\sfml\\__init__.py', 'PYMODULE'), ('tempfile', 'c:\\python33\\lib\\tempfile.py', 'PYMODULE'), ('shutil', 'c:\\python33\\lib\\shutil.py', 'PYMODULE'), ('urllib.request', 'c:\\python33\\lib\\urllib\\request.py', 'PYMODULE'), ('getpass', 'c:\\python33\\lib\\getpass.py', 'PYMODULE'), ('ftplib', 'c:\\python33\\lib\\ftplib.py', 'PYMODULE'), ('http.cookiejar', 'c:\\python33\\lib\\http\\cookiejar.py', 'PYMODULE'), ('urllib.response', 'c:\\python33\\lib\\urllib\\response.py', 'PYMODULE'), ('urllib.error', 'c:\\python33\\lib\\urllib\\error.py', 'PYMODULE'), ('zipfile', 'c:\\python33\\lib\\zipfile.py', 'PYMODULE'), ('os', 'c:\\python33\\lib\\os.py', 'PYMODULE'), ('multiprocessing', 'c:\\python33\\lib\\multiprocessing\\__init__.py', 'PYMODULE'), ('multiprocessing.sharedctypes', 'c:\\python33\\lib\\multiprocessing\\sharedctypes.py', 'PYMODULE'), ('multiprocessing.heap', 'c:\\python33\\lib\\multiprocessing\\heap.py', 'PYMODULE'), ('ctypes', 'c:\\python33\\lib\\ctypes\\__init__.py', 'PYMODULE'), ('ctypes._endian', 'c:\\python33\\lib\\ctypes\\_endian.py', 'PYMODULE'), ('multiprocessing.pool', 'c:\\python33\\lib\\multiprocessing\\pool.py', 'PYMODULE'), ('multiprocessing.dummy', 'c:\\python33\\lib\\multiprocessing\\dummy\\__init__.py', 'PYMODULE'), ('multiprocessing.dummy.connection', 'c:\\python33\\lib\\multiprocessing\\dummy\\connection.py', 'PYMODULE'), ('queue', 'c:\\python33\\lib\\queue.py', 'PYMODULE'), ('multiprocessing.queues', 'c:\\python33\\lib\\multiprocessing\\queues.py', 'PYMODULE'), ('multiprocessing.synchronize', 'c:\\python33\\lib\\multiprocessing\\synchronize.py', 'PYMODULE'), ('multiprocessing.forking', 'c:\\python33\\lib\\multiprocessing\\forking.py', 'PYMODULE'), ('multiprocessing.connection', 'c:\\python33\\lib\\multiprocessing\\connection.py', 'PYMODULE'), ('xmlrpc.client', 'c:\\python33\\lib\\xmlrpc\\client.py', 'PYMODULE'), ('xmlrpc', 'c:\\python33\\lib\\xmlrpc\\__init__.py', 'PYMODULE'), ('hmac', 'c:\\python33\\lib\\hmac.py', 'PYMODULE'), ('multiprocessing.managers', 'c:\\python33\\lib\\multiprocessing\\managers.py', 'PYMODULE'), ('multiprocessing.process', 'c:\\python33\\lib\\multiprocessing\\process.py', 'PYMODULE'), ('multiprocessing.reduction', 'c:\\python33\\lib\\multiprocessing\\reduction.py', 'PYMODULE'), ('multiprocessing.util', 'c:\\python33\\lib\\multiprocessing\\util.py', 'PYMODULE')],
 [('python33.dll', 'C:\\Windows\\system32\\python33.dll', 'BINARY'), ('msvcr100.dll', 'C:\\Windows\\system32\\msvcr100.dll', 'BINARY'), ('_ssl', 'c:\\python33\\DLLs\\_ssl.pyd', 'EXTENSION'), ('unicodedata', 'c:\\python33\\DLLs\\unicodedata.pyd', 'EXTENSION'), ('win32api', 'c:\\python33\\lib\\site-packages\\win32\\win32api.pyd', 'EXTENSION'), ('pyexpat', 'c:\\python33\\DLLs\\pyexpat.pyd', 'EXTENSION'), ('_bz2', 'c:\\python33\\DLLs\\_bz2.pyd', 'EXTENSION'), ('_lzma', 'c:\\python33\\DLLs\\_lzma.pyd', 'EXTENSION'), ('_hashlib', 'c:\\python33\\DLLs\\_hashlib.pyd', 'EXTENSION'), ('_socket', 'c:\\python33\\DLLs\\_socket.pyd', 'EXTENSION'), ('select', 'c:\\python33\\DLLs\\select.pyd', 'EXTENSION'), ('sfml.audio', 'c:\\python33\\lib\\site-packages\\sfml\\audio.pyd', 'EXTENSION'), ('sfml.network', 'c:\\python33\\lib\\site-packages\\sfml\\network.pyd', 'EXTENSION'), ('sfml.graphics', 'c:\\python33\\lib\\site-packages\\sfml\\graphics.pyd', 'EXTENSION'), ('sfml.window', 'c:\\python33\\lib\\site-packages\\sfml\\window.pyd', 'EXTENSION'), ('sfml.system', 'c:\\python33\\lib\\site-packages\\sfml\\system.pyd', 'EXTENSION'), ('_ctypes', 'c:\\python33\\DLLs\\_ctypes.pyd', 'EXTENSION'), ('_multiprocessing', 'c:\\python33\\DLLs\\_multiprocessing.pyd', 'EXTENSION'), ('pywintypes33.dll', 'c:\\python33\\lib\\site-packages\\pypiwin32_system32\\pywintypes33.dll', 'BINARY'), ('sfml-audio-2.dll', 'c:\\python33\\lib\\site-packages\\sfml\\sfml-audio-2.dll', 'BINARY'), ('sfml-system-2.dll', 'c:\\python33\\lib\\site-packages\\sfml\\sfml-system-2.dll', 'BINARY'), ('msvcp100.dll', 'C:\\Windows\\system32\\msvcp100.dll', 'BINARY'), ('sfml-network-2.dll', 'c:\\python33\\lib\\site-packages\\sfml\\sfml-network-2.dll', 'BINARY'), ('sfml-graphics-2.dll', 'c:\\python33\\lib\\site-packages\\sfml\\sfml-graphics-2.dll', 'BINARY'), ('sfml-window-2.dll', 'c:\\python33\\lib\\site-packages\\sfml\\sfml-window-2.dll', 'BINARY'), ('openal32.dll', 'c:\\python33\\lib\\site-packages\\sfml\\OpenAL32.dll', 'BINARY'), ('libsndfile-1.dll', 'c:\\python33\\lib\\site-packages\\sfml\\libsndfile-1.dll', 'BINARY')],
 [],
 [],
 [('base_library.zip', 'd:\\lucidity\\pyLauncher\\build\\main\\base_library.zip', 'DATA'), ('include\\pyconfig.h', 'c:\\python33\\Include\\pyconfig.h', 'DATA')],
 [])
