('D:\\lucidity\\pyLauncher\\extras',
 'extras\\',
 [],
 [('extras\\direwolf.ttf',
   'D:\\lucidity\\pyLauncher\\extras\\direwolf.ttf',
   'DATA'),
  ('extras\\example.ttf',
   'D:\\lucidity\\pyLauncher\\extras\\example.ttf',
   'DATA'),
  ('extras\\Helvetica.otf',
   'D:\\lucidity\\pyLauncher\\extras\\Helvetica.otf',
   'DATA'),
  ('extras\\unibody.otf',
   'D:\\lucidity\\pyLauncher\\extras\\unibody.otf',
   'DATA'),
  ('extras\\unibody.ttf',
   'D:\\lucidity\\pyLauncher\\extras\\unibody.ttf',
   'DATA')])
