(['test.py'],
 ['d:\\lucidity\\pyLauncher', 'd:\\lucidity\\pyLauncher'],
 ['codecs'],
 None,
 [],
 [],
 None,
 None,
 [('test', 'd:\\lucidity\\pyLauncher\\test.py', 'PYSOURCE')],
 [('ntpath', 'c:\\python33\\lib\\ntpath.py', 'PYMODULE'), ('_strptime', 'c:\\python33\\lib\\_strptime.py', 'PYMODULE'), ('datetime', 'c:\\python33\\lib\\datetime.py', 'PYMODULE'), ('stringprep', 'c:\\python33\\lib\\stringprep.py', 'PYMODULE'), ('_compat_pickle', 'c:\\python33\\lib\\_compat_pickle.py', 'PYMODULE'), ('pickle', 'c:\\python33\\lib\\pickle.py', 'PYMODULE'), ('bisect', 'c:\\python33\\lib\\bisect.py', 'PYMODULE'), ('__future__', 'c:\\python33\\lib\\__future__.py', 'PYMODULE'), ('difflib', 'c:\\python33\\lib\\difflib.py', 'PYMODULE'), ('inspect', 'c:\\python33\\lib\\inspect.py', 'PYMODULE'), ('cmd', 'c:\\python33\\lib\\cmd.py', 'PYMODULE'), ('bdb', 'c:\\python33\\lib\\bdb.py', 'PYMODULE'), ('opcode', 'c:\\python33\\lib\\opcode.py', 'PYMODULE'), ('dis', 'c:\\python33\\lib\\dis.py', 'PYMODULE'), ('codeop', 'c:\\python33\\lib\\codeop.py', 'PYMODULE'), ('code', 'c:\\python33\\lib\\code.py', 'PYMODULE'), ('glob', 'c:\\python33\\lib\\glob.py', 'PYMODULE'), ('shlex', 'c:\\python33\\lib\\shlex.py', 'PYMODULE'), ('imp', 'c:\\python33\\lib\\imp.py', 'PYMODULE'), ('importlib.machinery', 'c:\\python33\\lib\\importlib\\machinery.py', 'PYMODULE'), ('importlib._bootstrap', 'c:\\python33\\lib\\importlib\\_bootstrap.py', 'PYMODULE'), ('importlib', 'c:\\python33\\lib\\importlib\\__init__.py', 'PYMODULE'), ('pkgutil', 'c:\\python33\\lib\\pkgutil.py', 'PYMODULE'), ('win32con', 'c:\\python33\\lib\\site-packages\\win32\\lib\\win32con.py', 'PYMODULE'), ('xml', 'c:\\python33\\lib\\xml\\__init__.py', 'PYMODULE'), ('xml.sax.expatreader', 'c:\\python33\\lib\\xml\\sax\\expatreader.py', 'PYMODULE'), ('xml.sax.saxutils', 'c:\\python33\\lib\\xml\\sax\\saxutils.py', 'PYMODULE'), ('urllib.request', 'c:\\python33\\lib\\urllib\\request.py', 'PYMODULE'), ('getpass', 'c:\\python33\\lib\\getpass.py', 'PYMODULE'), ('ftplib', 'c:\\python33\\lib\\ftplib.py', 'PYMODULE'), ('http.cookiejar', 'c:\\python33\\lib\\http\\cookiejar.py', 'PYMODULE'), ('urllib.response', 'c:\\python33\\lib\\urllib\\response.py', 'PYMODULE'), ('urllib.error', 'c:\\python33\\lib\\urllib\\error.py', 'PYMODULE'), ('xml.sax', 'c:\\python33\\lib\\xml\\sax\\__init__.py', 'PYMODULE'), ('xml.sax.handler', 'c:\\python33\\lib\\xml\\sax\\handler.py', 'PYMODULE'), ('xml.sax._exceptions', 'c:\\python33\\lib\\xml\\sax\\_exceptions.py', 'PYMODULE'), ('xml.sax.xmlreader', 'c:\\python33\\lib\\xml\\sax\\xmlreader.py', 'PYMODULE'), ('xml.parsers', 'c:\\python33\\lib\\xml\\parsers\\__init__.py', 'PYMODULE'), ('xml.parsers.expat', 'c:\\python33\\lib\\xml\\parsers\\expat.py', 'PYMODULE'), ('plistlib', 'c:\\python33\\lib\\plistlib.py', 'PYMODULE'), ('platform', 'c:\\python33\\lib\\platform.py', 'PYMODULE'), ('nturl2path', 'c:\\python33\\lib\\nturl2path.py', 'PYMODULE'), ('tty', 'c:\\python33\\lib\\tty.py', 'PYMODULE'), ('pydoc_data', 'c:\\python33\\lib\\pydoc_data\\__init__.py', 'PYMODULE'), ('pydoc_data.topics', 'c:\\python33\\lib\\pydoc_data\\topics.py', 'PYMODULE'), ('formatter', 'c:\\python33\\lib\\formatter.py', 'PYMODULE'), ('html', 'c:\\python33\\lib\\html\\__init__.py', 'PYMODULE'), ('ssl', 'c:\\python33\\lib\\ssl.py', 'PYMODULE'), ('http.client', 'c:\\python33\\lib\\http\\client.py', 'PYMODULE'), ('mimetypes', 'c:\\python33\\lib\\mimetypes.py', 'PYMODULE'), ('gzip', 'c:\\python33\\lib\\gzip.py', 'PYMODULE'), ('tarfile', 'c:\\python33\\lib\\tarfile.py', 'PYMODULE'), ('bz2', 'c:\\python33\\lib\\bz2.py', 'PYMODULE'), ('distutils.errors', 'c:\\python33\\lib\\distutils\\errors.py', 'PYMODULE'), ('distutils', 'c:\\python33\\lib\\distutils\\__init__.py', 'PYMODULE'), ('distutils.log', 'c:\\python33\\lib\\distutils\\log.py', 'PYMODULE'), ('_osx_support', 'c:\\python33\\lib\\_osx_support.py', 'PYMODULE'), ('distutils.text_file', 'c:\\python33\\lib\\distutils\\text_file.py', 'PYMODULE'), ('distutils.sysconfig', 'c:\\python33\\lib\\distutils\\sysconfig.py', 'PYMODULE'), ('distutils.spawn', 'c:\\python33\\lib\\distutils\\spawn.py', 'PYMODULE'), ('lzma', 'c:\\python33\\lib\\lzma.py', 'PYMODULE'), ('py_compile', 'c:\\python33\\lib\\py_compile.py', 'PYMODULE'), ('zipfile', 'c:\\python33\\lib\\zipfile.py', 'PYMODULE'), ('shutil', 'c:\\python33\\lib\\shutil.py', 'PYMODULE'), ('dummy_threading', 'c:\\python33\\lib\\dummy_threading.py', 'PYMODULE'), ('socketserver', 'c:\\python33\\lib\\socketserver.py', 'PYMODULE'), ('http', 'c:\\python33\\lib\\http\\__init__.py', 'PYMODULE'), ('http.server', 'c:\\python33\\lib\\http\\server.py', 'PYMODULE'), ('uu', 'c:\\python33\\lib\\uu.py', 'PYMODULE'), ('base64', 'c:\\python33\\lib\\base64.py', 'PYMODULE'), ('email.feedparser', 'c:\\python33\\lib\\email\\feedparser.py', 'PYMODULE'), ('email.parser', 'c:\\python33\\lib\\email\\parser.py', 'PYMODULE'), ('email', 'c:\\python33\\lib\\email\\__init__.py', 'PYMODULE'), ('urllib', 'c:\\python33\\lib\\urllib\\__init__.py', 'PYMODULE'), ('urllib.parse', 'c:\\python33\\lib\\urllib\\parse.py', 'PYMODULE'), ('calendar', 'c:\\python33\\lib\\calendar.py', 'PYMODULE'), ('email._parseaddr', 'c:\\python33\\lib\\email\\_parseaddr.py', 'PYMODULE'), ('email.utils', 'c:\\python33\\lib\\email\\utils.py', 'PYMODULE'), ('email.errors', 'c:\\python33\\lib\\email\\errors.py', 'PYMODULE'), ('email._policybase', 'c:\\python33\\lib\\email\\_policybase.py', 'PYMODULE'), ('quopri', 'c:\\python33\\lib\\quopri.py', 'PYMODULE'), ('email.encoders', 'c:\\python33\\lib\\email\\encoders.py', 'PYMODULE'), ('email.charset', 'c:\\python33\\lib\\email\\charset.py', 'PYMODULE'), ('email._encoded_words', 'c:\\python33\\lib\\email\\_encoded_words.py', 'PYMODULE'), ('logging', 'c:\\python33\\lib\\logging\\__init__.py', 'PYMODULE'), ('hashlib', 'c:\\python33\\lib\\hashlib.py', 'PYMODULE'), ('random', 'c:\\python33\\lib\\random.py', 'PYMODULE'), ('email.quoprimime', 'c:\\python33\\lib\\email\\quoprimime.py', 'PYMODULE'), ('email.base64mime', 'c:\\python33\\lib\\email\\base64mime.py', 'PYMODULE'), ('email.header', 'c:\\python33\\lib\\email\\header.py', 'PYMODULE'), ('email.generator', 'c:\\python33\\lib\\email\\generator.py', 'PYMODULE'), ('email.iterators', 'c:\\python33\\lib\\email\\iterators.py', 'PYMODULE'), ('email.message', 'c:\\python33\\lib\\email\\message.py', 'PYMODULE'), ('socket', 'c:\\python33\\lib\\socket.py', 'PYMODULE'), ('webbrowser', 'c:\\python33\\lib\\webbrowser.py', 'PYMODULE'), ('pydoc', 'c:\\python33\\lib\\pydoc.py', 'PYMODULE'), ('getopt', 'c:\\python33\\lib\\getopt.py', 'PYMODULE'), ('pdb', 'c:\\python33\\lib\\pdb.py', 'PYMODULE'), ('unittest.util', 'c:\\python33\\lib\\unittest\\util.py', 'PYMODULE'), ('unittest.result', 'c:\\python33\\lib\\unittest\\result.py', 'PYMODULE'), ('pprint', 'c:\\python33\\lib\\pprint.py', 'PYMODULE'), ('unittest.case', 'c:\\python33\\lib\\unittest\\case.py', 'PYMODULE'), ('unittest.suite', 'c:\\python33\\lib\\unittest\\suite.py', 'PYMODULE'), ('fnmatch', 'c:\\python33\\lib\\fnmatch.py', 'PYMODULE'), ('unittest.loader', 'c:\\python33\\lib\\unittest\\loader.py', 'PYMODULE'), ('unittest.runner', 'c:\\python33\\lib\\unittest\\runner.py', 'PYMODULE'), ('optparse', 'c:\\python33\\lib\\optparse.py', 'PYMODULE'), ('unittest.main', 'c:\\python33\\lib\\unittest\\main.py', 'PYMODULE'), ('unittest.signals', 'c:\\python33\\lib\\unittest\\signals.py', 'PYMODULE'), ('unittest', 'c:\\python33\\lib\\unittest\\__init__.py', 'PYMODULE'), ('doctest', 'c:\\python33\\lib\\doctest.py', 'PYMODULE'), ('stat', 'c:\\python33\\lib\\stat.py', 'PYMODULE'), ('posixpath', 'c:\\python33\\lib\\posixpath.py', 'PYMODULE'), ('genericpath', 'c:\\python33\\lib\\genericpath.py', 'PYMODULE'), ('os2emxpath', 'c:\\python33\\lib\\os2emxpath.py', 'PYMODULE'), ('warnings', 'c:\\python33\\lib\\warnings.py', 'PYMODULE'), ('contextlib', 'c:\\python33\\lib\\contextlib.py', 'PYMODULE'), ('_threading_local', 'c:\\python33\\lib\\_threading_local.py', 'PYMODULE'), ('subprocess', 'c:\\python33\\lib\\subprocess.py', 'PYMODULE'), ('token', 'c:\\python33\\lib\\token.py', 'PYMODULE'), ('types', 'c:\\python33\\lib\\types.py', 'PYMODULE'), ('copy', 'c:\\python33\\lib\\copy.py', 'PYMODULE'), ('textwrap', 'c:\\python33\\lib\\textwrap.py', 'PYMODULE'), ('struct', 'c:\\python33\\lib\\struct.py', 'PYMODULE'), ('gettext', 'c:\\python33\\lib\\gettext.py', 'PYMODULE'), ('argparse', 'c:\\python33\\lib\\argparse.py', 'PYMODULE'), ('tokenize', 'c:\\python33\\lib\\tokenize.py', 'PYMODULE'), ('linecache', 'c:\\python33\\lib\\linecache.py', 'PYMODULE'), ('traceback', 'c:\\python33\\lib\\traceback.py', 'PYMODULE'), ('_dummy_thread', 'c:\\python33\\lib\\_dummy_thread.py', 'PYMODULE'), ('queue', 'c:\\python33\\lib\\queue.py', 'PYMODULE'), ('pyglet', 'c:\\python33\\lib\\site-packages\\pyglet\\__init__.py', 'PYMODULE'), ('pyglet.window', 'c:\\python33\\lib\\site-packages\\pyglet\\window\\__init__.py', 'PYMODULE'), ('pyglet.window.xlib', 'c:\\python33\\lib\\site-packages\\pyglet\\window\\xlib\\__init__.py', 'PYMODULE'), ('pyglet.libs.x11.xsync', 'c:\\python33\\lib\\site-packages\\pyglet\\libs\\x11\\xsync.py', 'PYMODULE'), ('pyglet.compat', 'c:\\python33\\lib\\site-packages\\pyglet\\compat.py', 'PYMODULE'), ('pyglet.libs.x11.cursorfont', 'c:\\python33\\lib\\site-packages\\pyglet\\libs\\x11\\cursorfont.py', 'PYMODULE'), ('pyglet.libs.x11.xlib', 'c:\\python33\\lib\\site-packages\\pyglet\\libs\\x11\\xlib.py', 'PYMODULE'), ('pyglet.libs.x11', 'c:\\python33\\lib\\site-packages\\pyglet\\libs\\x11\\__init__.py', 'PYMODULE'), ('pyglet.libs.x11.xinput', 'c:\\python33\\lib\\site-packages\\pyglet\\libs\\x11\\xinput.py', 'PYMODULE'), ('pyglet.libs.x11.xinerama', 'c:\\python33\\lib\\site-packages\\pyglet\\libs\\x11\\xinerama.py', 'PYMODULE'), ('pyglet.libs.x11.xf86vmode', 'c:\\python33\\lib\\site-packages\\pyglet\\libs\\x11\\xf86vmode.py', 'PYMODULE'), ('pyglet.libs', 'c:\\python33\\lib\\site-packages\\pyglet\\libs\\__init__.py', 'PYMODULE'), ('pyglet.canvas.xlib', 'c:\\python33\\lib\\site-packages\\pyglet\\canvas\\xlib.py', 'PYMODULE'), ('pyglet.canvas.xlib_vidmoderestore', 'c:\\python33\\lib\\site-packages\\pyglet\\canvas\\xlib_vidmoderestore.py', 'PYMODULE'), ('pyglet.canvas.base', 'c:\\python33\\lib\\site-packages\\pyglet\\canvas\\base.py', 'PYMODULE'), ('pyglet.app.xlib', 'c:\\python33\\lib\\site-packages\\pyglet\\app\\xlib.py', 'PYMODULE'), ('pyglet.app.base', 'c:\\python33\\lib\\site-packages\\pyglet\\app\\base.py', 'PYMODULE'), ('pyglet.window.win32', 'c:\\python33\\lib\\site-packages\\pyglet\\window\\win32\\__init__.py', 'PYMODULE'), ('pyglet.libs.win32.types', 'c:\\python33\\lib\\site-packages\\pyglet\\libs\\win32\\types.py', 'PYMODULE'), ('ctypes.wintypes', 'c:\\python33\\lib\\ctypes\\wintypes.py', 'PYMODULE'), ('pyglet.libs.win32.winkey', 'c:\\python33\\lib\\site-packages\\pyglet\\libs\\win32\\winkey.py', 'PYMODULE'), ('pyglet.libs.win32.constants', 'c:\\python33\\lib\\site-packages\\pyglet\\libs\\win32\\constants.py', 'PYMODULE'), ('pyglet.libs.win32', 'c:\\python33\\lib\\site-packages\\pyglet\\libs\\win32\\__init__.py', 'PYMODULE'), ('pyglet.libs.win32.libwintab', 'c:\\python33\\lib\\site-packages\\pyglet\\libs\\win32\\libwintab.py', 'PYMODULE'), ('pyglet.libs.win32.dinput', 'c:\\python33\\lib\\site-packages\\pyglet\\libs\\win32\\dinput.py', 'PYMODULE'), ('pyglet.canvas.win32', 'c:\\python33\\lib\\site-packages\\pyglet\\canvas\\win32.py', 'PYMODULE'), ('pyglet.window.carbon', 'c:\\python33\\lib\\site-packages\\pyglet\\window\\carbon\\__init__.py', 'PYMODULE'), ('pyglet.libs.darwin.quartzkey', 'c:\\python33\\lib\\site-packages\\pyglet\\libs\\darwin\\quartzkey.py', 'PYMODULE'), ('pyglet.libs.darwin', 'c:\\python33\\lib\\site-packages\\pyglet\\libs\\darwin\\__init__.py', 'PYMODULE'), ('pyglet.libs.darwin.constants', 'c:\\python33\\lib\\site-packages\\pyglet\\libs\\darwin\\constants.py', 'PYMODULE'), ('pyglet.libs.darwin.types', 'c:\\python33\\lib\\site-packages\\pyglet\\libs\\darwin\\types.py', 'PYMODULE'), ('pyglet.libs.darwin.cocoapy', 'c:\\python33\\lib\\site-packages\\pyglet\\libs\\darwin\\cocoapy\\__init__.py', 'PYMODULE'), ('pyglet.libs.darwin.cocoapy.cocoalibs', 'c:\\python33\\lib\\site-packages\\pyglet\\libs\\darwin\\cocoapy\\cocoalibs.py', 'PYMODULE'), ('ctypes.util', 'c:\\python33\\lib\\ctypes\\util.py', 'PYMODULE'), ('ctypes.macholib.dyld', 'c:\\python33\\lib\\ctypes\\macholib\\dyld.py', 'PYMODULE'), ('ctypes.macholib', 'c:\\python33\\lib\\ctypes\\macholib\\__init__.py', 'PYMODULE'), ('ctypes.macholib.dylib', 'c:\\python33\\lib\\ctypes\\macholib\\dylib.py', 'PYMODULE'), ('ctypes.macholib.framework', 'c:\\python33\\lib\\ctypes\\macholib\\framework.py', 'PYMODULE'), ('pyglet.libs.darwin.cocoapy.cocoatypes', 'c:\\python33\\lib\\site-packages\\pyglet\\libs\\darwin\\cocoapy\\cocoatypes.py', 'PYMODULE'), ('pyglet.libs.darwin.cocoapy.runtime', 'c:\\python33\\lib\\site-packages\\pyglet\\libs\\darwin\\cocoapy\\runtime.py', 'PYMODULE'), ('pyglet.canvas.carbon', 'c:\\python33\\lib\\site-packages\\pyglet\\canvas\\carbon.py', 'PYMODULE'), ('pyglet.window.cocoa', 'c:\\python33\\lib\\site-packages\\pyglet\\window\\cocoa\\__init__.py', 'PYMODULE'), ('pyglet.window.cocoa.pyglet_view', 'c:\\python33\\lib\\site-packages\\pyglet\\window\\cocoa\\pyglet_view.py', 'PYMODULE'), ('pyglet.window.cocoa.pyglet_window', 'c:\\python33\\lib\\site-packages\\pyglet\\window\\cocoa\\pyglet_window.py', 'PYMODULE'), ('pyglet.window.cocoa.pyglet_textview', 'c:\\python33\\lib\\site-packages\\pyglet\\window\\cocoa\\pyglet_textview.py', 'PYMODULE'), ('pyglet.window.cocoa.pyglet_delegate', 'c:\\python33\\lib\\site-packages\\pyglet\\window\\cocoa\\pyglet_delegate.py', 'PYMODULE'), ('pyglet.window.cocoa.systemcursor', 'c:\\python33\\lib\\site-packages\\pyglet\\window\\cocoa\\systemcursor.py', 'PYMODULE'), ('pyglet.canvas.cocoa', 'c:\\python33\\lib\\site-packages\\pyglet\\canvas\\cocoa.py', 'PYMODULE'), ('pyglet.window.event', 'c:\\python33\\lib\\site-packages\\pyglet\\window\\event.py', 'PYMODULE'), ('pyglet.window.mouse', 'c:\\python33\\lib\\site-packages\\pyglet\\window\\mouse.py', 'PYMODULE'), ('pyglet.window.key', 'c:\\python33\\lib\\site-packages\\pyglet\\window\\key.py', 'PYMODULE'), ('pyglet.gl.gl_info', 'c:\\python33\\lib\\site-packages\\pyglet\\gl\\gl_info.py', 'PYMODULE'), ('pyglet.gl.glext_arb', 'c:\\python33\\lib\\site-packages\\pyglet\\gl\\glext_arb.py', 'PYMODULE'), ('pyglet.gl.lib', 'c:\\python33\\lib\\site-packages\\pyglet\\gl\\lib.py', 'PYMODULE'), ('pyglet.gl.lib_glx', 'c:\\python33\\lib\\site-packages\\pyglet\\gl\\lib_glx.py', 'PYMODULE'), ('pyglet.gl.lib_agl', 'c:\\python33\\lib\\site-packages\\pyglet\\gl\\lib_agl.py', 'PYMODULE'), ('pyglet.gl.lib_wgl', 'c:\\python33\\lib\\site-packages\\pyglet\\gl\\lib_wgl.py', 'PYMODULE'), ('pyglet.gl.gl', 'c:\\python33\\lib\\site-packages\\pyglet\\gl\\gl.py', 'PYMODULE'), ('pyglet.text', 'c:\\python33\\lib\\site-packages\\pyglet\\text\\__init__.py', 'PYMODULE'), ('pyglet.text.formats.attributed', 'c:\\python33\\lib\\site-packages\\pyglet\\text\\formats\\attributed.py', 'PYMODULE'), ('pyglet.text.formats.html', 'c:\\python33\\lib\\site-packages\\pyglet\\text\\formats\\html.py', 'PYMODULE'), ('pyglet.text.formats.structured', 'c:\\python33\\lib\\site-packages\\pyglet\\text\\formats\\structured.py', 'PYMODULE'), ('html.entities', 'c:\\python33\\lib\\html\\entities.py', 'PYMODULE'), ('html.parser', 'c:\\python33\\lib\\html\\parser.py', 'PYMODULE'), ('_markupbase', 'c:\\python33\\lib\\_markupbase.py', 'PYMODULE'), ('pyglet.text.formats.plaintext', 'c:\\python33\\lib\\site-packages\\pyglet\\text\\formats\\plaintext.py', 'PYMODULE'), ('pyglet.text.formats', 'c:\\python33\\lib\\site-packages\\pyglet\\text\\formats\\__init__.py', 'PYMODULE'), ('pyglet.text.caret', 'c:\\python33\\lib\\site-packages\\pyglet\\text\\caret.py', 'PYMODULE'), ('pyglet.text.document', 'c:\\python33\\lib\\site-packages\\pyglet\\text\\document.py', 'PYMODULE'), ('pyglet.text.layout', 'c:\\python33\\lib\\site-packages\\pyglet\\text\\layout.py', 'PYMODULE'), ('pyglet.font.base', 'c:\\python33\\lib\\site-packages\\pyglet\\font\\base.py', 'PYMODULE'), ('pyglet.text.runlist', 'c:\\python33\\lib\\site-packages\\pyglet\\text\\runlist.py', 'PYMODULE'), ('pyglet.sprite', 'c:\\python33\\lib\\site-packages\\pyglet\\sprite.py', 'PYMODULE'), ('pyglet.resource', 'c:\\python33\\lib\\site-packages\\pyglet\\resource.py', 'PYMODULE'), ('pyglet.media', 'c:\\python33\\lib\\site-packages\\pyglet\\media\\__init__.py', 'PYMODULE'), ('pyglet.media.drivers.silent', 'c:\\python33\\lib\\site-packages\\pyglet\\media\\drivers\\silent.py', 'PYMODULE'), ('pyglet.media.drivers.directsound', 'c:\\python33\\lib\\site-packages\\pyglet\\media\\drivers\\directsound\\__init__.py', 'PYMODULE'), ('pyglet.media.drivers.directsound.lib_dsound', 'c:\\python33\\lib\\site-packages\\pyglet\\media\\drivers\\directsound\\lib_dsound.py', 'PYMODULE'), ('pyglet.media.drivers.openal', 'c:\\python33\\lib\\site-packages\\pyglet\\media\\drivers\\openal\\__init__.py', 'PYMODULE'), ('pyglet.media.drivers.openal.lib_alc', 'c:\\python33\\lib\\site-packages\\pyglet\\media\\drivers\\openal\\lib_alc.py', 'PYMODULE'), ('pyglet.media.drivers.openal.lib_openal', 'c:\\python33\\lib\\site-packages\\pyglet\\media\\drivers\\openal\\lib_openal.py', 'PYMODULE'), ('pyglet.media.drivers.pulse', 'c:\\python33\\lib\\site-packages\\pyglet\\media\\drivers\\pulse\\__init__.py', 'PYMODULE'), ('pyglet.media.drivers.pulse.lib_pulseaudio', 'c:\\python33\\lib\\site-packages\\pyglet\\media\\drivers\\pulse\\lib_pulseaudio.py', 'PYMODULE'), ('pyglet.media.drivers', 'c:\\python33\\lib\\site-packages\\pyglet\\media\\drivers\\__init__.py', 'PYMODULE'), ('pyglet.media.riff', 'c:\\python33\\lib\\site-packages\\pyglet\\media\\riff.py', 'PYMODULE'), ('pyglet.media.avbin', 'c:\\python33\\lib\\site-packages\\pyglet\\media\\avbin.py', 'PYMODULE'), ('pyglet.input', 'c:\\python33\\lib\\site-packages\\pyglet\\input\\__init__.py', 'PYMODULE'), ('pyglet.input.carbon_tablet', 'c:\\python33\\lib\\site-packages\\pyglet\\input\\carbon_tablet.py', 'PYMODULE'), ('pyglet.input.carbon_hid', 'c:\\python33\\lib\\site-packages\\pyglet\\input\\carbon_hid.py', 'PYMODULE'), ('pyglet.input.darwin_hid', 'c:\\python33\\lib\\site-packages\\pyglet\\input\\darwin_hid.py', 'PYMODULE'), ('pyglet.input.wintab', 'c:\\python33\\lib\\site-packages\\pyglet\\input\\wintab.py', 'PYMODULE'), ('pyglet.input.directinput', 'c:\\python33\\lib\\site-packages\\pyglet\\input\\directinput.py', 'PYMODULE'), ('pyglet.input.evdev', 'c:\\python33\\lib\\site-packages\\pyglet\\input\\evdev.py', 'PYMODULE'), ('pyglet.input.evdev_constants', 'c:\\python33\\lib\\site-packages\\pyglet\\input\\evdev_constants.py', 'PYMODULE'), ('pyglet.input.x11_xinput_tablet', 'c:\\python33\\lib\\site-packages\\pyglet\\input\\x11_xinput_tablet.py', 'PYMODULE'), ('pyglet.input.x11_xinput', 'c:\\python33\\lib\\site-packages\\pyglet\\input\\x11_xinput.py', 'PYMODULE'), ('pyglet.input.base', 'c:\\python33\\lib\\site-packages\\pyglet\\input\\base.py', 'PYMODULE'), ('pyglet.event', 'c:\\python33\\lib\\site-packages\\pyglet\\event.py', 'PYMODULE'), ('pyglet.com', 'c:\\python33\\lib\\site-packages\\pyglet\\com.py', 'PYMODULE'), ('pyglet.canvas', 'c:\\python33\\lib\\site-packages\\pyglet\\canvas\\__init__.py', 'PYMODULE'), ('pyglet.app', 'c:\\python33\\lib\\site-packages\\pyglet\\app\\__init__.py', 'PYMODULE'), ('pyglet.app.win32', 'c:\\python33\\lib\\site-packages\\pyglet\\app\\win32.py', 'PYMODULE'), ('pyglet.app.carbon', 'c:\\python33\\lib\\site-packages\\pyglet\\app\\carbon.py', 'PYMODULE'), ('pyglet.app.cocoa', 'c:\\python33\\lib\\site-packages\\pyglet\\app\\cocoa.py', 'PYMODULE'), ('pyglet.clock', 'c:\\python33\\lib\\site-packages\\pyglet\\clock.py', 'PYMODULE'), ('pyglet.image', 'c:\\python33\\lib\\site-packages\\pyglet\\image\\__init__.py', 'PYMODULE'), ('pyglet.image.codecs', 'c:\\python33\\lib\\site-packages\\pyglet\\image\\codecs\\__init__.py', 'PYMODULE'), ('pyglet.image.codecs.bmp', 'c:\\python33\\lib\\site-packages\\pyglet\\image\\codecs\\bmp.py', 'PYMODULE'), ('pyglet.image.codecs.png', 'c:\\python33\\lib\\site-packages\\pyglet\\image\\codecs\\png.py', 'PYMODULE'), ('pyglet.extlibs.png', 'c:\\python33\\lib\\site-packages\\pyglet\\extlibs\\png.py', 'PYMODULE'), ('pyglet.extlibs', 'c:\\python33\\lib\\site-packages\\pyglet\\extlibs\\__init__.py', 'PYMODULE'), ('pyglet.image.codecs.pil', 'c:\\python33\\lib\\site-packages\\pyglet\\image\\codecs\\pil.py', 'PYMODULE'), ('PIL.Image', 'c:\\python33\\lib\\site-packages\\PIL\\Image.py', 'PYMODULE'), ('PIL.Jpeg2KImagePlugin', 'c:\\python33\\lib\\site-packages\\PIL\\Jpeg2KImagePlugin.py', 'PYMODULE'), ('PIL.ImageFile', 'c:\\python33\\lib\\site-packages\\PIL\\ImageFile.py', 'PYMODULE'), ('PIL.IcoImagePlugin', 'c:\\python33\\lib\\site-packages\\PIL\\IcoImagePlugin.py', 'PYMODULE'), ('PIL.PsdImagePlugin', 'c:\\python33\\lib\\site-packages\\PIL\\PsdImagePlugin.py', 'PYMODULE'), ('PIL.DcxImagePlugin', 'c:\\python33\\lib\\site-packages\\PIL\\DcxImagePlugin.py', 'PYMODULE'), ('PIL.MpoImagePlugin', 'c:\\python33\\lib\\site-packages\\PIL\\MpoImagePlugin.py', 'PYMODULE'), ('PIL.MspImagePlugin', 'c:\\python33\\lib\\site-packages\\PIL\\MspImagePlugin.py', 'PYMODULE'), ('PIL.MpegImagePlugin', 'c:\\python33\\lib\\site-packages\\PIL\\MpegImagePlugin.py', 'PYMODULE'), ('PIL.MicImagePlugin', 'c:\\python33\\lib\\site-packages\\PIL\\MicImagePlugin.py', 'PYMODULE'), ('PIL.OleFileIO', 'c:\\python33\\lib\\site-packages\\PIL\\OleFileIO.py', 'PYMODULE'), ('PIL.McIdasImagePlugin', 'c:\\python33\\lib\\site-packages\\PIL\\McIdasImagePlugin.py', 'PYMODULE'), ('PIL.SgiImagePlugin', 'c:\\python33\\lib\\site-packages\\PIL\\SgiImagePlugin.py', 'PYMODULE'), ('PIL.PalmImagePlugin', 'c:\\python33\\lib\\site-packages\\PIL\\PalmImagePlugin.py', 'PYMODULE'), ('PIL.GribStubImagePlugin', 'c:\\python33\\lib\\site-packages\\PIL\\GribStubImagePlugin.py', 'PYMODULE'), ('PIL.Hdf5StubImagePlugin', 'c:\\python33\\lib\\site-packages\\PIL\\Hdf5StubImagePlugin.py', 'PYMODULE'), ('PIL.FpxImagePlugin', 'c:\\python33\\lib\\site-packages\\PIL\\FpxImagePlugin.py', 'PYMODULE'), ('PIL.PcxImagePlugin', 'c:\\python33\\lib\\site-packages\\PIL\\PcxImagePlugin.py', 'PYMODULE'), ('PIL.XbmImagePlugin', 'c:\\python33\\lib\\site-packages\\PIL\\XbmImagePlugin.py', 'PYMODULE'), ('PIL.FitsStubImagePlugin', 'c:\\python33\\lib\\site-packages\\PIL\\FitsStubImagePlugin.py', 'PYMODULE'), ('PIL.PixarImagePlugin', 'c:\\python33\\lib\\site-packages\\PIL\\PixarImagePlugin.py', 'PYMODULE'), ('PIL.PdfImagePlugin', 'c:\\python33\\lib\\site-packages\\PIL\\PdfImagePlugin.py', 'PYMODULE'), ('PIL.TgaImagePlugin', 'c:\\python33\\lib\\site-packages\\PIL\\TgaImagePlugin.py', 'PYMODULE'), ('PIL.TiffImagePlugin', 'c:\\python33\\lib\\site-packages\\PIL\\TiffImagePlugin.py', 'PYMODULE'), ('PIL.TiffTags', 'c:\\python33\\lib\\site-packages\\PIL\\TiffTags.py', 'PYMODULE'), ('fractions', 'c:\\python33\\lib\\fractions.py', 'PYMODULE'), ('decimal', 'c:\\python33\\lib\\decimal.py', 'PYMODULE'), ('PIL.BufrStubImagePlugin', 'c:\\python33\\lib\\site-packages\\PIL\\BufrStubImagePlugin.py', 'PYMODULE'), ('PIL.IptcImagePlugin', 'c:\\python33\\lib\\site-packages\\PIL\\IptcImagePlugin.py', 'PYMODULE'), ('PIL.CurImagePlugin', 'c:\\python33\\lib\\site-packages\\PIL\\CurImagePlugin.py', 'PYMODULE'), ('PIL.SpiderImagePlugin', 'c:\\python33\\lib\\site-packages\\PIL\\SpiderImagePlugin.py', 'PYMODULE'), ('PIL.ImageTk', 'c:\\python33\\lib\\site-packages\\PIL\\ImageTk.py', 'PYMODULE'), ('PIL.EpsImagePlugin', 'c:\\python33\\lib\\site-packages\\PIL\\EpsImagePlugin.py', 'PYMODULE'), ('PIL.ImImagePlugin', 'c:\\python33\\lib\\site-packages\\PIL\\ImImagePlugin.py', 'PYMODULE'), ('PIL.ImtImagePlugin', 'c:\\python33\\lib\\site-packages\\PIL\\ImtImagePlugin.py', 'PYMODULE'), ('PIL.GbrImagePlugin', 'c:\\python33\\lib\\site-packages\\PIL\\GbrImagePlugin.py', 'PYMODULE'), ('PIL.XVThumbImagePlugin', 'c:\\python33\\lib\\site-packages\\PIL\\XVThumbImagePlugin.py', 'PYMODULE'), ('PIL.WebPImagePlugin', 'c:\\python33\\lib\\site-packages\\PIL\\WebPImagePlugin.py', 'PYMODULE'), ('PIL.XpmImagePlugin', 'c:\\python33\\lib\\site-packages\\PIL\\XpmImagePlugin.py', 'PYMODULE'), ('PIL.WmfImagePlugin', 'c:\\python33\\lib\\site-packages\\PIL\\WmfImagePlugin.py', 'PYMODULE'), ('PIL.PcdImagePlugin', 'c:\\python33\\lib\\site-packages\\PIL\\PcdImagePlugin.py', 'PYMODULE'), ('PIL.FliImagePlugin', 'c:\\python33\\lib\\site-packages\\PIL\\FliImagePlugin.py', 'PYMODULE'), ('PIL.SunImagePlugin', 'c:\\python33\\lib\\site-packages\\PIL\\SunImagePlugin.py', 'PYMODULE'), ('PIL.IcnsImagePlugin', 'c:\\python33\\lib\\site-packages\\PIL\\IcnsImagePlugin.py', 'PYMODULE'), ('PIL.ImageShow', 'c:\\python33\\lib\\site-packages\\PIL\\ImageShow.py', 'PYMODULE'), ('pipes', 'c:\\python33\\lib\\pipes.py', 'PYMODULE'), ('PIL.ImageQt', 'c:\\python33\\lib\\site-packages\\PIL\\ImageQt.py', 'PYMODULE'), ('PIL.ImageColor', 'c:\\python33\\lib\\site-packages\\PIL\\ImageColor.py', 'PYMODULE'), ('colorsys', 'c:\\python33\\lib\\colorsys.py', 'PYMODULE'), ('PIL.PyAccess', 'c:\\python33\\lib\\site-packages\\PIL\\PyAccess.py', 'PYMODULE'), ('PIL.ImagePalette', 'c:\\python33\\lib\\site-packages\\PIL\\ImagePalette.py', 'PYMODULE'), ('PIL.PaletteFile', 'c:\\python33\\lib\\site-packages\\PIL\\PaletteFile.py', 'PYMODULE'), ('PIL.GimpGradientFile', 'c:\\python33\\lib\\site-packages\\PIL\\GimpGradientFile.py', 'PYMODULE'), ('PIL.GimpPaletteFile', 'c:\\python33\\lib\\site-packages\\PIL\\GimpPaletteFile.py', 'PYMODULE'), ('PIL.PngImagePlugin', 'c:\\python33\\lib\\site-packages\\PIL\\PngImagePlugin.py', 'PYMODULE'), ('PIL.PpmImagePlugin', 'c:\\python33\\lib\\site-packages\\PIL\\PpmImagePlugin.py', 'PYMODULE'), ('PIL.JpegImagePlugin', 'c:\\python33\\lib\\site-packages\\PIL\\JpegImagePlugin.py', 'PYMODULE'), ('PIL.JpegPresets', 'c:\\python33\\lib\\site-packages\\PIL\\JpegPresets.py', 'PYMODULE'), ('PIL.GifImagePlugin', 'c:\\python33\\lib\\site-packages\\PIL\\GifImagePlugin.py', 'PYMODULE'), ('PIL.ImageChops', 'c:\\python33\\lib\\site-packages\\PIL\\ImageChops.py', 'PYMODULE'), ('PIL.ImageSequence', 'c:\\python33\\lib\\site-packages\\PIL\\ImageSequence.py', 'PYMODULE'), ('PIL.BmpImagePlugin', 'c:\\python33\\lib\\site-packages\\PIL\\BmpImagePlugin.py', 'PYMODULE'), ('numbers', 'c:\\python33\\lib\\numbers.py', 'PYMODULE'), ('PIL._util', 'c:\\python33\\lib\\site-packages\\PIL\\_util.py', 'PYMODULE'), ('PIL._binary', 'c:\\python33\\lib\\site-packages\\PIL\\_binary.py', 'PYMODULE'), ('PIL.ImageMode', 'c:\\python33\\lib\\site-packages\\PIL\\ImageMode.py', 'PYMODULE'), ('PIL', 'c:\\python33\\lib\\site-packages\\PIL\\__init__.py', 'PYMODULE'), ('pyglet.image.codecs.gdkpixbuf2', 'c:\\python33\\lib\\site-packages\\pyglet\\image\\codecs\\gdkpixbuf2.py', 'PYMODULE'), ('pyglet.image.codecs.gif', 'c:\\python33\\lib\\site-packages\\pyglet\\image\\codecs\\gif.py', 'PYMODULE'), ('pyglet.image.codecs.gdiplus', 'c:\\python33\\lib\\site-packages\\pyglet\\image\\codecs\\gdiplus.py', 'PYMODULE'), ('pyglet.image.codecs.quicktime', 'c:\\python33\\lib\\site-packages\\pyglet\\image\\codecs\\quicktime.py', 'PYMODULE'), ('pyglet.image.codecs.quartz', 'c:\\python33\\lib\\site-packages\\pyglet\\image\\codecs\\quartz.py', 'PYMODULE'), ('pyglet.image.codecs.dds', 'c:\\python33\\lib\\site-packages\\pyglet\\image\\codecs\\dds.py', 'PYMODULE'), ('pyglet.image.codecs.s3tc', 'c:\\python33\\lib\\site-packages\\pyglet\\image\\codecs\\s3tc.py', 'PYMODULE'), ('pyglet.image.atlas', 'c:\\python33\\lib\\site-packages\\pyglet\\image\\atlas.py', 'PYMODULE'), ('pyglet.graphics', 'c:\\python33\\lib\\site-packages\\pyglet\\graphics\\__init__.py', 'PYMODULE'), ('pyglet.graphics.vertexdomain', 'c:\\python33\\lib\\site-packages\\pyglet\\graphics\\vertexdomain.py', 'PYMODULE'), ('pyglet.graphics.vertexattribute', 'c:\\python33\\lib\\site-packages\\pyglet\\graphics\\vertexattribute.py', 'PYMODULE'), ('pyglet.graphics.allocation', 'c:\\python33\\lib\\site-packages\\pyglet\\graphics\\allocation.py', 'PYMODULE'), ('pyglet.graphics.vertexbuffer', 'c:\\python33\\lib\\site-packages\\pyglet\\graphics\\vertexbuffer.py', 'PYMODULE'), ('pyglet.lib', 'c:\\python33\\lib\\site-packages\\pyglet\\lib.py', 'PYMODULE'), ('ctypes', 'c:\\python33\\lib\\ctypes\\__init__.py', 'PYMODULE'), ('ctypes._endian', 'c:\\python33\\lib\\ctypes\\_endian.py', 'PYMODULE'), ('threading', 'c:\\python33\\lib\\threading.py', 'PYMODULE'), ('string', 'c:\\python33\\lib\\string.py', 'PYMODULE'), ('Tween', 'd:\\lucidity\\pyLauncher\\Tween.py', 'PYMODULE'), ('pyglet.font.ttf', 'c:\\python33\\lib\\site-packages\\pyglet\\font\\ttf.py', 'PYMODULE'), ('pyglet.font', 'c:\\python33\\lib\\site-packages\\pyglet\\font\\__init__.py', 'PYMODULE'), ('pyglet.font.freetype', 'c:\\python33\\lib\\site-packages\\pyglet\\font\\freetype.py', 'PYMODULE'), ('pyglet.font.freetype_lib', 'c:\\python33\\lib\\site-packages\\pyglet\\font\\freetype_lib.py', 'PYMODULE'), ('pyglet.font.fontconfig', 'c:\\python33\\lib\\site-packages\\pyglet\\font\\fontconfig.py', 'PYMODULE'), ('pyglet.font.win32', 'c:\\python33\\lib\\site-packages\\pyglet\\font\\win32.py', 'PYMODULE'), ('pyglet.font.win32query', 'c:\\python33\\lib\\site-packages\\pyglet\\font\\win32query.py', 'PYMODULE'), ('pyglet.font.carbon', 'c:\\python33\\lib\\site-packages\\pyglet\\font\\carbon.py', 'PYMODULE'), ('pyglet.font.quartz', 'c:\\python33\\lib\\site-packages\\pyglet\\font\\quartz.py', 'PYMODULE'), ('pyglet.gl', 'c:\\python33\\lib\\site-packages\\pyglet\\gl\\__init__.py', 'PYMODULE'), ('pyglet.gl.carbon', 'c:\\python33\\lib\\site-packages\\pyglet\\gl\\carbon.py', 'PYMODULE'), ('pyglet.gl.cocoa', 'c:\\python33\\lib\\site-packages\\pyglet\\gl\\cocoa.py', 'PYMODULE'), ('pyglet.gl.agl', 'c:\\python33\\lib\\site-packages\\pyglet\\gl\\agl.py', 'PYMODULE'), ('pyglet.gl.xlib', 'c:\\python33\\lib\\site-packages\\pyglet\\gl\\xlib.py', 'PYMODULE'), ('pyglet.gl.glxext_mesa', 'c:\\python33\\lib\\site-packages\\pyglet\\gl\\glxext_mesa.py', 'PYMODULE'), ('pyglet.gl.glx_info', 'c:\\python33\\lib\\site-packages\\pyglet\\gl\\glx_info.py', 'PYMODULE'), ('pyglet.gl.glxext_arb', 'c:\\python33\\lib\\site-packages\\pyglet\\gl\\glxext_arb.py', 'PYMODULE'), ('pyglet.gl.glx', 'c:\\python33\\lib\\site-packages\\pyglet\\gl\\glx.py', 'PYMODULE'), ('pyglet.gl.win32', 'c:\\python33\\lib\\site-packages\\pyglet\\gl\\win32.py', 'PYMODULE'), ('pyglet.gl.wgl_info', 'c:\\python33\\lib\\site-packages\\pyglet\\gl\\wgl_info.py', 'PYMODULE'), ('pyglet.gl.wglext_arb', 'c:\\python33\\lib\\site-packages\\pyglet\\gl\\wglext_arb.py', 'PYMODULE'), ('pyglet.gl.wgl', 'c:\\python33\\lib\\site-packages\\pyglet\\gl\\wgl.py', 'PYMODULE'), ('pyglet.gl.base', 'c:\\python33\\lib\\site-packages\\pyglet\\gl\\base.py', 'PYMODULE'), ('pyglet.gl.glu_info', 'c:\\python33\\lib\\site-packages\\pyglet\\gl\\glu_info.py', 'PYMODULE'), ('pyglet.gl.glu', 'c:\\python33\\lib\\site-packages\\pyglet\\gl\\glu.py', 'PYMODULE'), ('l_tools', 'd:\\lucidity\\pyLauncher\\l_tools.py', 'PYMODULE'), ('multiprocessing', 'c:\\python33\\lib\\multiprocessing\\__init__.py', 'PYMODULE'), ('multiprocessing.sharedctypes', 'c:\\python33\\lib\\multiprocessing\\sharedctypes.py', 'PYMODULE'), ('multiprocessing.heap', 'c:\\python33\\lib\\multiprocessing\\heap.py', 'PYMODULE'), ('multiprocessing.pool', 'c:\\python33\\lib\\multiprocessing\\pool.py', 'PYMODULE'), ('multiprocessing.dummy', 'c:\\python33\\lib\\multiprocessing\\dummy\\__init__.py', 'PYMODULE'), ('multiprocessing.dummy.connection', 'c:\\python33\\lib\\multiprocessing\\dummy\\connection.py', 'PYMODULE'), ('multiprocessing.queues', 'c:\\python33\\lib\\multiprocessing\\queues.py', 'PYMODULE'), ('multiprocessing.synchronize', 'c:\\python33\\lib\\multiprocessing\\synchronize.py', 'PYMODULE'), ('multiprocessing.forking', 'c:\\python33\\lib\\multiprocessing\\forking.py', 'PYMODULE'), ('multiprocessing.connection', 'c:\\python33\\lib\\multiprocessing\\connection.py', 'PYMODULE'), ('xmlrpc.client', 'c:\\python33\\lib\\xmlrpc\\client.py', 'PYMODULE'), ('xmlrpc', 'c:\\python33\\lib\\xmlrpc\\__init__.py', 'PYMODULE'), ('hmac', 'c:\\python33\\lib\\hmac.py', 'PYMODULE'), ('multiprocessing.managers', 'c:\\python33\\lib\\multiprocessing\\managers.py', 'PYMODULE'), ('multiprocessing.reduction', 'c:\\python33\\lib\\multiprocessing\\reduction.py', 'PYMODULE'), ('multiprocessing.util', 'c:\\python33\\lib\\multiprocessing\\util.py', 'PYMODULE'), ('multiprocessing.process', 'c:\\python33\\lib\\multiprocessing\\process.py', 'PYMODULE'), ('tempfile', 'c:\\python33\\lib\\tempfile.py', 'PYMODULE'), ('gui', 'd:\\lucidity\\pyLauncher\\gui.py', 'PYMODULE'), ('Vector', 'd:\\lucidity\\pyLauncher\\Vector.py', 'PYMODULE'), ('os', 'c:\\python33\\lib\\os.py', 'PYMODULE')],
 [('msvcr100.dll', 'C:\\Windows\\system32\\msvcr100.dll', 'BINARY'), ('python33.dll', 'C:\\Windows\\system32\\python33.dll', 'BINARY'), ('_ssl', 'c:\\python33\\DLLs\\_ssl.pyd', 'EXTENSION'), ('unicodedata', 'c:\\python33\\DLLs\\unicodedata.pyd', 'EXTENSION'), ('win32api', 'c:\\python33\\lib\\site-packages\\win32\\win32api.pyd', 'EXTENSION'), ('pyexpat', 'c:\\python33\\DLLs\\pyexpat.pyd', 'EXTENSION'), ('_bz2', 'c:\\python33\\DLLs\\_bz2.pyd', 'EXTENSION'), ('_lzma', 'c:\\python33\\DLLs\\_lzma.pyd', 'EXTENSION'), ('_hashlib', 'c:\\python33\\DLLs\\_hashlib.pyd', 'EXTENSION'), ('_socket', 'c:\\python33\\DLLs\\_socket.pyd', 'EXTENSION'), ('select', 'c:\\python33\\DLLs\\select.pyd', 'EXTENSION'), ('_decimal', 'c:\\python33\\DLLs\\_decimal.pyd', 'EXTENSION'), ('PIL._imagingtk', 'c:\\python33\\lib\\site-packages\\PIL\\_imagingtk.pyd', 'EXTENSION'), ('PIL._webp', 'c:\\python33\\lib\\site-packages\\PIL\\_webp.pyd', 'EXTENSION'), ('PIL._imaging', 'c:\\python33\\lib\\site-packages\\PIL\\_imaging.pyd', 'EXTENSION'), ('_ctypes', 'c:\\python33\\DLLs\\_ctypes.pyd', 'EXTENSION'), ('_multiprocessing', 'c:\\python33\\DLLs\\_multiprocessing.pyd', 'EXTENSION'), ('pywintypes33.dll', 'c:\\python33\\lib\\site-packages\\pypiwin32_system32\\pywintypes33.dll', 'BINARY'), ('tk85.dll', 'c:\\python33\\DLLs\\tk85.dll', 'BINARY'), ('tcl85.dll', 'c:\\python33\\DLLs\\tcl85.dll', 'BINARY')],
 [],
 [],
 [('base_library.zip', 'd:\\lucidity\\pyLauncher\\build\\test\\base_library.zip', 'DATA'), ('include\\pyconfig.h', 'c:\\python33\\Include\\pyconfig.h', 'DATA')],
 [])
