('d:\\lucidity\\pyLauncher\\dist\\test.exe',
 False,
 False,
 False,
 'D:/lucidity/pyLauncher/firefly.ico',
 None,
 False,
 False,
 <PyInstaller.utils.win32.winmanifest.Manifest object at 0x03073BF0>,
 True,
 'test.pkg',
 [('out00-PYZ.pyz', 'd:\\lucidity\\pyLauncher\\build\\test\\out00-PYZ.pyz', 'PYZ'), ('struct', 'c:\\python33\\lib\\struct.pyo', 'PYMODULE'), ('pyimod01_os_path', 'c:\\python33\\lib\\site-packages\\PyInstaller\\loader\\pyimod01_os_path.pyc', 'PYMODULE'), ('pyimod02_archive', 'c:\\python33\\lib\\site-packages\\PyInstaller\\loader\\pyimod02_archive.pyc', 'PYMODULE'), ('pyimod03_importers', 'c:\\python33\\lib\\site-packages\\PyInstaller\\loader\\pyimod03_importers.pyc', 'PYMODULE'), ('pyiboot01_bootstrap', 'c:\\python33\\lib\\site-packages\\PyInstaller\\loader\\pyiboot01_bootstrap.py', 'PYSOURCE'), ('test', 'd:\\lucidity\\pyLauncher\\test.py', 'PYSOURCE'), ('msvcr100.dll', 'C:\\Windows\\system32\\msvcr100.dll', 'BINARY'), ('python33.dll', 'C:\\Windows\\system32\\python33.dll', 'BINARY'), ('_ssl', 'c:\\python33\\DLLs\\_ssl.pyd', 'EXTENSION'), ('unicodedata', 'c:\\python33\\DLLs\\unicodedata.pyd', 'EXTENSION'), ('win32api', 'c:\\python33\\lib\\site-packages\\win32\\win32api.pyd', 'EXTENSION'), ('pyexpat', 'c:\\python33\\DLLs\\pyexpat.pyd', 'EXTENSION'), ('_bz2', 'c:\\python33\\DLLs\\_bz2.pyd', 'EXTENSION'), ('_lzma', 'c:\\python33\\DLLs\\_lzma.pyd', 'EXTENSION'), ('_hashlib', 'c:\\python33\\DLLs\\_hashlib.pyd', 'EXTENSION'), ('_socket', 'c:\\python33\\DLLs\\_socket.pyd', 'EXTENSION'), ('select', 'c:\\python33\\DLLs\\select.pyd', 'EXTENSION'), ('_decimal', 'c:\\python33\\DLLs\\_decimal.pyd', 'EXTENSION'), ('PIL._imagingtk', 'c:\\python33\\lib\\site-packages\\PIL\\_imagingtk.pyd', 'EXTENSION'), ('PIL._webp', 'c:\\python33\\lib\\site-packages\\PIL\\_webp.pyd', 'EXTENSION'), ('PIL._imaging', 'c:\\python33\\lib\\site-packages\\PIL\\_imaging.pyd', 'EXTENSION'), ('_ctypes', 'c:\\python33\\DLLs\\_ctypes.pyd', 'EXTENSION'), ('_multiprocessing', 'c:\\python33\\DLLs\\_multiprocessing.pyd', 'EXTENSION'), ('pywintypes33.dll', 'c:\\python33\\lib\\site-packages\\pypiwin32_system32\\pywintypes33.dll', 'BINARY'), ('tk85.dll', 'c:\\python33\\DLLs\\tk85.dll', 'BINARY'), ('tcl85.dll', 'c:\\python33\\DLLs\\tcl85.dll', 'BINARY'), ('base_library.zip', 'd:\\lucidity\\pyLauncher\\build\\test\\base_library.zip', 'DATA'), ('include\\pyconfig.h', 'c:\\python33\\Include\\pyconfig.h', 'DATA'), ('test.exe.manifest', 'd:\\lucidity\\pyLauncher\\build\\test\\test.exe.manifest', 'BINARY'), ('pyi-windows-manifest-filename test.exe.manifest', '', 'OPTION')],
 [],
 None,
 False,
 1444772784,
 [('runw.exe', 'c:\\python33\\lib\\site-packages\\PyInstaller\\bootloader\\Windows-32bit\\runw.exe', 'EXECUTABLE')])
